<svg viewBox="0 0 32 24" fill="none" xmlns="http://www.w3.org/2000/svg">
<path d="M0.436201 12.9488C2.3292 14.5725 4.4747 16.413 8.62476 16.413C12.775 16.4129 14.9206 14.5725 16.8136 12.9488C18.6039 11.4133 20.15 10.0872 23.3749 10.0872C26.5998 10.0872 28.1459 11.4133 29.9361 12.9488C30.4602 13.3983 31.2493 13.3379 31.6988 12.8139C32.1482 12.2898 32.0878 11.5007 31.5638 11.0513C29.6707 9.4276 27.5251 7.58716 23.3749 7.58716C19.2247 7.58716 17.0791 9.42753 15.186 11.0513C13.3958 12.5868 11.8496 13.913 8.62476 13.913C5.39995 13.913 3.85401 12.5868 2.06389 11.0513C1.53989 10.6018 0.750764 10.6622 0.301264 11.1862C-0.148236 11.7102 -0.0877986 12.4994 0.436201 12.9488Z" fill="#A5A5A5"/>
<path d="M0.436201 6.11169C2.32914 7.73544 4.47464 9.57581 8.62476 9.57581C12.775 9.57581 14.9206 7.73544 16.8136 6.11169C18.6039 4.57619 20.1499 3.25 23.3749 3.25C26.5997 3.25 28.1458 4.57613 29.9361 6.11169C30.4602 6.56125 31.2493 6.50069 31.6987 5.97663C32.1482 5.45263 32.0876 4.66337 31.5636 4.214C29.6706 2.59025 27.5249 0.75 23.3749 0.75C19.2247 0.75 17.0791 2.59037 15.186 4.21412C13.3958 5.74962 11.8496 7.07581 8.62476 7.07581C5.40001 7.07581 3.85401 5.74969 2.06389 4.21412C1.53989 3.76462 0.750701 3.825 0.301264 4.34906C-0.148236 4.87306 -0.0877986 5.66225 0.436201 6.11169Z" fill="#A5A5A5"/>
<path d="M31.5637 17.8883C29.6707 16.2646 27.525 14.4242 23.3748 14.4242C19.2247 14.4242 17.079 16.2646 15.186 17.8883C13.3957 19.4238 11.8496 20.75 8.62471 20.75C5.40009 20.75 3.85402 19.4239 2.0639 17.8884L2.06377 17.8883C1.53977 17.439 0.750712 17.4994 0.301212 18.0233C-0.148226 18.5473 -0.0877882 19.3365 0.436212 19.7859C2.32921 21.4097 4.47477 23.25 8.62471 23.25C12.7749 23.25 14.9205 21.4096 16.8136 19.7859C18.6038 18.2504 20.15 16.9242 23.3748 16.9242C26.5998 16.9242 28.1459 18.2504 29.9361 19.7859C30.4602 20.2353 31.2493 20.1749 31.6987 19.6509C32.1482 19.1269 32.0878 18.3378 31.5637 17.8883Z" fill="#A5A5A5"/>
</svg>
